{
	"mysql-production-public" : {
		"hostname" : "202.6.227.246",
		"port" : "8089",
		"user" : "root",
		"password" : "surabaya",
		"libraryLocation" : "libmysql.dll",
		"database" : "db_tatsumi_attendance",
	},
  "mysql-production-local" : {
		"hostname" : "10.11.10.183",
		"port" : "3309",
		"user" : "root",
		"password" : "surabaya",
		"libraryLocation" : "libmysql.dll",
		"database" : "db_tatsumi_attendance",
	},
  "mysql-development-public" : {
		"hostname" : "10.11.10.183",
		"port" : "3309",
		"user" : "root",
		"password" : "surabaya",
		"libraryLocation" : "libmysql.dll",
		"database" : "db_tatsumi_attendance_test",
	},
  "mysql-development-local" : {
		"hostname" : "127.0.0.1",
		"port" : "3309",
		"user" : "root",
		"password" : "root",
		"libraryLocation" : "libmysql.dll",
		"database" : "db_tatsumi",
	}
}
