PRASETYO TRI UTOMO;;;12;B;12;B;B;;;B;B;12;B;12;;;B;12;12;B;B;;;B;B;12;B;12;;;B;B
SUPRAYITNO;;3;3;;1;12;1;12;;3;3;3;3;;1;12;12;1;;12;1;12;1;;12;1;12;1;;3;3;3
MOHAMMAD ISNAINI;;12;1;1;;3;3;3;3;;1;12;12;1;;12;1;12;1;;12;1;12;1;;3;3;3;3;;12;1
WAHYUDI;;1;12;1;1;;12;1;1;1;;1;1;12;1;;12;1;12;1;;3;3;3;3;;1;12;12;1;;12
